[
      {
            "Novedad": "ACTUALIZACIÓN 2.0.4 DISPONIBLE: descarga la nueva versión desde nuestras apps. Esta versión no incluye los canales de cable pero seguirás viendo lo que más te interesa ⚽" 
      }
]
